[
    {
        "name": "Carrot Soup",
        "directions": "Slice carrots into half inch chunks.",
        "ingredients": ["carrot", "broth"]
    },
    {
        "name": "Apple & Peanut Butter",
        "directions": "Slice apple",
        "ingredients": ["peanut-butter", "apple"]
    },
    {
        "name": "Peanut Butter Cookies",
        "directions": "",
        "ingredients": ["peanut-butter", "flour", "egg", "baking-soda", "vanilla"]
    },
    {
        "name": "PBJ",
        "directions": "Spread peanut butter on bread",
        "ingredients": ["bread", "peanut-butter", "jam"]
    },
    {
        "name": "Peanut Butter Chocolate Chip Blondies",
        "directions": "",
        "ingredients": ["chocolate-chips", "peanut-butter", "flour", "sugar", "baking-powder", "baking-soda"]
    },
    {
        "name": "Corn Flake Cookies",
        "directions": "Boil sugar and corn syrup",
        "ingredients": ["peanut-butter", "sugar", "corn-syrup", "corn-flakes"]
    },
    {
        "name": "Carrot Cake",
        "directions": "",
        "ingredients": ["cream-cheese", "carrot", "flour"]
    },
    {
        "name": "Cranberry Bliss Bars",
        "directions": "",
        "ingredients": ["cream-cheese", "dried-cranberries"]
    },
    {
        "name": "Bubbly Pear Cupcakes",
        "directions": "",
        "ingredients": ["cream-cheese", "pear"]
    },
    {
        "name": "Mushroom Dip",
        "directions": "",
        "ingredients": ["cream-cheese", "mushrooms"]
    },
    {
        "name": "Enchiladas",
        "directions": "Mix cream cheese and jack cheese",
        "ingredients": ["cream-cheese", "psepper-jack-cheese", "green-onions", "enchilada-sauce", "tortilla"]
    },
    {
        "name": "Miso Udon Soup",
        "directions": "Cut tofu into small cubes",
        "ingredients": ["broth", "udon", "tofu", "miso"]
    },
    {
        "name": "Baked Tofu",
        "directions": "Cut tofu into cubes",
        "ingredients": ["tofu"]
    },
    {
        "name": "Apple Crisp",
        "directions": "Slice apple",
        "ingredients": ["oatmeal", "sugar", "apple"]
    },
    {
        "name": "Strawberry Shortcake",
        "directions": "Slice strawberries",
        "ingredients": ["strawberries"]
    },
    {
        "name": "Banana Bread",
        "directions": "Peel bananas",
        "ingredients": ["banana", "sugar", "flour"]
    },
    {
        "name": "Fried Mushrooms",
        "directions": "Wash and slice mushrooms.",
        "ingredients": ["mushrooms", "butter", "pepper", "salt"]
    },
    {
        "name": "Mushroom Penne",
        "directions": "Wash and slice mushrooms.",
        "ingredients": ["mushrooms", "penne"]
    },
    {
        "name": "Asparagus Penne",
        "directions": "Wash asparagus.",
        "ingredients": ["asparagus", "penne"]
    },
    {
        "name": "Beer-Battered Asparagus",
        "directions": "Wash asparagus.",
        "ingredients": ["asparagus"]
    },
    {
        "name": "Tacos",
        "directions": "Cook tortillas.",
        "ingredients": ["tomato", "avocado", "tortilla", "cheese", "garlic", "crumbles"]
    },
    {
        "name": "Yumm Bowls",
        "directions": "Cook tortillas.",
        "ingredients": ["tomato", "avocado", "cheese"]
    },
    {
        "name": "Guacamole",
        "directions": "Smoosh avocados.",
        "ingredients": ["tomato", "avocado", "garlic"]
    },
    {
        "name": "BLT",
        "directions": "Cut tomatoes.",
        "ingredients": ["tomato", "bread", "bacon", "lettuce"]
    },
    {
        "name": "Spaghetti",
        "directions": "Cut tomatoes.",
        "ingredients": ["tomato", "angel-hair-pasta", "garlic", "olive-oil"]
    },
    {
        "name": "Chicken Sandwich",
        "directions": "Cut tomatoes.",
        "ingredients": ["tomato", "bread", "morningstar chicken patty", "mayonnaise"]
    },
    {
        "name": "Tomato Salad",
        "directions": "Cut tomatoes.",
        "ingredients": ["tomato", "Annies salad dressing"]
    },
    {
        "name": "Tofu scramble",
        "directions": "Crumble tofu into pan.",
        "ingredients": ["tofu"]
    },
    {
        "name": "Matzo Ball Soup",
        "directions": "Grind matzo.",
        "ingredients": ["matzo", "broth", "carrot", "egg", "oil"],
        "link": "https://www.marthastewart.com/334889/matzo-ball-soup"
    },
    {
        "name": "Baked Potatoes",
        "directions": "Cut tomatoes.",
        "ingredients": ["potato", "green-onions"]
    },
    {
        "name": "Scalloped Potatoes",
        "directions": "Cut tomatoes.",
        "ingredients": ["potato", "green onions"]
    },
    {
        "name": "Pineapple Upside Down Cake",
        "directions": "",
        "ingredients": ["pineapple", "flour", "butter", "baking-powder"]
    },
    {
        "name": "Ramen",
        "directions": "Boil water.",
        "ingredients": ["ramen"]
    }
]